GroupProject1
…
appearances
Number of matches a player has appeared in

goals
Number of goals scored by the player

We start by applying basic summary and exploratory statistics to this data to better understand the data and identify trends.

# Read in the data set, include only data for forwards
(premier <- read_csv("premier1819.csv") %>%
  filter(position %in% c("Forward")) %>%
  select(appearances = appearances_overall, goals = goals_overall))

## # A tibble: 114 x 2
##    appearances goals
##          <dbl> <dbl>
##  1           2     0
##  2          13     3
##  3           0     0
##  4          12     0
##  5          21     0
##  6          37    11
##  7          35     3
##  8          12     0
##  9          35    13
## 10           1     0
## #  with 104 more rows
…
