Group Project 2
…
We start by applying basic summary and exploratory statistics to this data to better understand the data and identify trends.

life_expect <- read_csv("lifeexpect.csv") %>%
  # Change Status into a numeric variable where 1 means
  #   developed and 0 means developing
  mutate(Status = factor(Status),
         # Fix capitalization on Life.expectancy
         Life.Expectancy = Life.expectancy) %>%
  # Remove un-needed columns
  select(Life.Expectancy, Adult.Mortality, Hepatitis.B, BMI, Polio,
         Diphtheria, GDP, Population, Schooling, Status) %>% 
  filter(Diphtheria < 100)
life_expect

## # A tibble: 129 x 10
##    Life.Expectancy Adult.Mortality Hepatitis.B   BMI Polio Diphtheria    GDP
##              <dbl>           <dbl>       <dbl> <dbl> <dbl>      <dbl>  <dbl>
##  1            66.3             198          82  77.6     8         71  1424.
##  2            73.5             133          78  75.2     8         78   494.
##  3            74               125          59  74.7    61         76  4149.
##  4            85                52          97   6.3    97         99  2375.
##  5            82.2             104          55  67      91         90 43316.
##  6            81.1              76          98  61.6    98         98  1923.
##  7            82.4              53          67  59.5    98         98  5585.
##  8            81.7              54          95  69.6    97         97 23819.
##  9            61               102          96  66.5    99         65   188.
## 10            54.9             108          81  66.1    75         59   847.
## # ... with 119 more rows, and 3 more variables: Population <dbl>,
## #   Schooling <dbl>, Status <fct>
…
