Homework 2
…
Joshua Carpenter

Data and Description

One key component of determining appropriate speed limits is the amount of distance that is required to stop at a given speed. For example, in residential neighborhoods, when pedestrians are commonly in the roadways, it is important to be able to stop in a very short distance to ensure pedestrian safety. The speed of vehicles may be useful for determining the distance required to stop at that given speed, which can aid public officials in determining speed limits.

The Stopping Distance data set compares the distance (column 2) (in feet) required for a car to stop on a certain rural road against the speed (column 1) (MPH) of the car. Download the StoppingDistance.txt file from Canvas, and put it in the same folder as this R Markdown file.

0. Replace the text < PUT YOUR NAME HERE > (above next to author:) with your full name.

1. Read in the data set, and call the data frame stop. Print a summary of the data and make sure the data makes sense.

(stop <- read_table2("StoppingDistance.txt"))

## # A tibble: 62 x 2
##    Speed Distance
##    <dbl>    <dbl>
##  1     4        4
##  2     5        2
##  3     5        4
##  4     5        8
##  5     5        8
##  6     7        7
##  7     7        7
##  8     8        8
##  9     8        9
## 10     8       11
## # ... with 52 more rows
…
