Homework 5
…
Measuring body fat is not simple. One method requires submerging the body underwater in a tank and measuring the increase in water level. A simpler method for estimating body fat would be preferred. In order to develop such a method, researchers recorded age (years), weight (pounds), height (inches), and three body circumference measurements (around the neck, chest, and abdominal (all in centimeters)) for 252 men. Each mans percentage of body fat was accurately estimated by an underwater weighing technique (the variable brozek is the percentage of body fat). The hope is to be able to use this data to create a model that will accurately predict body fat percentage, by using just the basic variables recorded, without having to use the tank submerging method.

The data can be found in the BodyFat data set on Canvas. Download BodyFat.txt, and put it in the same folder as this R Markdown file.

0. Replace the text < PUT YOUR NAME HERE > (above next to author:) with your full name.

0b. Make sure to set your seed since some of the functions randomly split your data (use set.seed in the setup code chunk above)!

1. Read in the data set, and call the data frame bodyfat_orig. Print a summary of the data and make sure the data makes sense.

bodyfat_orig <- read.csv("bodyfat.txt", sep = " ", row.names = 1)
(bodyfat_orig <- tibble(bodyfat_orig))

## # A tibble: 251 x 7
##    brozek   age weight height  neck chest abdom
##     <dbl> <int>  <dbl>  <dbl> <dbl> <dbl> <dbl>
##  1   12.6    23   154.   67.8  36.2  93.1  85.2
##  2    6.9    22   173.   72.2  38.5  93.6  83  
##  3   24.6    22   154    66.2  34    95.8  87.9
##  4   10.9    26   185.   72.2  37.4 102.   86.4
##  5   27.8    24   184.   71.2  34.4  97.3 100  
##  6   20.6    24   210.   74.8  39   104.   94.4
##  7   19      26   181    69.8  36.4 105.   90.7
##  8   12.8    25   176    72.5  37.8  99.6  88.5
##  9    5.1    25   191    74    38.1 101.   82.5
## 10   12      23   198.   73.5  42.1  99.6  88.6
## # ... with 241 more rows
…
