Homework 1 | STAT 330
…
One possible solution to help predict wind speed at a candidate site is to use wind speed at a nearby reference site. A reference site is a nearby location where the wind speed is already being monitored and should, theoretically, be similar to the candidate site. Using information from the reference site will allow windmill companies to know the wind speed at the candidate site without going through a costly data collection period, if the reference site is a good predictor.

The Windmill data set contains measurements of wind speed (in meters per second m/s) at a candidate site (CSpd) (column 1) and at an accompanying reference site (RSpd) (column 2) for 1,116 areas. Download the Windmill.txt file from Canvas, and put it in the same folder as this R Markdown file.

0. Replace the text < PUT YOUR NAME HERE > (above next to author:) with your full name.

1. Briefly explain why simple linear regression is an appropriate tool to use in this situation.

We would like to know how a change in wind speed at a reference site affects the wind speed at a candidate site. That is a perfect scenario for linear regression. Since we only have one explanatory variable, we will use simple linear regression.

2. Read in the data set, and call the data frame wind. Print a summary of the data and make sure the data makes sense.

(wind <- read_table2("Windmill.txt"))

## # A tibble: 1,116 x 2
##     CSpd  RSpd
##    <dbl> <dbl>
##  1   6.9  5.97
##  2   7.1  7.22
##  3   7.8  7.94
##  4   6.9  6.02
##  5   5.5  6.16
##  6   3.1  1.77
##  7   6.8  4.65
##  8  11.4 10.9 
##  9  12.9 11.7 
## 10  13.5 13.0 
## #  with 1,106 more rows
…
