Homework 7
…
diabetes
Does the patient have diabetes (0 if No, 1 if Yes)

The data can be found in the Diabetes data set on Canvas. Download Diabetes.txt, and put it in the same folder as this R Markdown file.

0. Replace the text < PUT YOUR NAME HERE > (above next to author:) with your full name.

1. Read in the data set, and call the data frame dia. Print a summary of the data and make sure the data makes sense.

(dia <- read.csv("Diabetes.txt", sep = " ", row.names = 1) %>%
  as_tibble())

## # A tibble: 392 x 9
##    pregnant glucose diastolic triceps insulin   bmi pedigree   age diabetes
##       <int>   <int>     <int>   <int>   <int> <dbl>    <dbl> <int>    <int>
##  1        1      89        66      23      94  28.1    0.167    21        0
##  2        0     137        40      35     168  43.1    2.29     33        1
##  3        3      78        50      32      88  31      0.248    26        1
##  4        2     197        70      45     543  30.5    0.158    53        1
##  5        1     189        60      23     846  30.1    0.398    59        1
##  6        5     166        72      19     175  25.8    0.587    51        1
##  7        0     118        84      47     230  45.8    0.551    31        1
##  8        1     103        30      38      83  43.3    0.183    33        0
##  9        1     115        70      30      96  34.6    0.529    32        1
## 10        3     126        88      41     235  39.3    0.704    27        0
## #  with 382 more rows
…
