Module 4 - Multiple Linear Regression
…
(super <- read_table2("Supervisor.txt"))

## 
##  Column specification 
## cols(
##   Rating = col_double(),
##   Complaints = col_double(),
##   Privileges = col_double(),
##   Learn = col_double(),
##   Raises = col_double(),
##   Critical = col_double(),
##   Advance = col_double()
## )

## # A tibble: 30 x 7
##    Rating Complaints Privileges Learn Raises Critical Advance
##     <dbl>      <dbl>      <dbl> <dbl>  <dbl>    <dbl>   <dbl>
##  1     43         51         30    39     61       92      45
##  2     63         64         51    54     63       73      47
##  3     71         70         68    69     76       86      48
##  4     61         63         45    47     54       84      35
##  5     81         78         56    66     71       83      47
##  6     43         55         49    44     54       49      34
##  7     58         67         42    56     66       68      35
##  8     71         75         50    55     70       66      41
##  9     72         82         72    67     71       83      31
## 10     67         61         45    47     62       80      41
## #  with 20 more rows
…
